{
	"info": {
		"_postman_id": "86b716d9-27fe-4bd8-9770-de00b2a462f1",
		"name": "Gateway Managment",
		"schema": "https://schema.getpostman.com/json/collection/v2.1.0/collection.json"
	},
	"item": [
		{
			"name": "gateway",
			"item": [
				{
					"name": "get all",
					"request": {
						"method": "GET",
						"header": [],
						"url": {
							"raw": "{{url}}/v1/gateways",
							"host": [
								"{{url}}"
							],
							"path": [
								"v1",
								"gateways"
							]
						}
					},
					"response": []
				},
				{
					"name": "get by id",
					"request": {
						"method": "GET",
						"header": [],
						"url": {
							"raw": "{{url}}/v1/gateways/1",
							"host": [
								"{{url}}"
							],
							"path": [
								"v1",
								"gateways",
								"1"
							]
						}
					},
					"response": [
						{
							"name": "get by id",
							"originalRequest": {
								"method": "GET",
								"header": [],
								"url": {
									"raw": "{{url}}/v1/gateways/:id",
									"host": [
										"{{url}}"
									],
									"path": [
										"v1",
										"gateways",
										":id"
									],
									"variable": [
										{
											"key": "id",
											"value": "1"
										}
									]
								}
							},
							"status": "OK",
							"code": 200,
							"_postman_previewlanguage": "json",
							"header": null,
							"cookie": [],
							"body": "{\n    \"id\": 1,\n    \"serialNumber\": \"1144saaf1\",\n    \"name\": \"hello world\",\n    \"ip\": \"12.12.1.216\",\n    \"devices\": [],\n    \"createdDate\": \"2021-05-29 12:14:36\",\n    \"lastModifiedDate\": \"2021-05-29 12:14:36\"\n}"
						},
						{
							"name": "not Found",
							"originalRequest": {
								"method": "GET",
								"header": [],
								"url": {
									"raw": "{{url}}/v1/gateways/:id",
									"host": [
										"{{url}}"
									],
									"path": [
										"v1",
										"gateways",
										":id"
									],
									"variable": [
										{
											"key": "id",
											"value": "1"
										}
									]
								}
							},
							"status": "Not Found",
							"code": 404,
							"_postman_previewlanguage": "json",
							"header": null,
							"cookie": [],
							"body": "{\n    \"X-error-message\": \"gateway is Not found .\",\n    \"X-error-code\": \"ent-nf01\",\n    \"X-error-id\": \"622f498a-43a0-45ff-8710-9f1d434a5a8f\",\n    \"X-error-timestamp\": \"2021-05-29T12:19:07.030\"\n}"
						}
					]
				},
				{
					"name": "add",
					"request": {
						"method": "POST",
						"header": [],
						"body": {
							"mode": "raw",
							"raw": "{\n    \"serialNumber\" : \"1144sadaf11\",\n    \"name\" : \"hello world\",\n    \"ip\": \"12.12.1.2\"\n}",
							"options": {
								"raw": {
									"language": "json"
								}
							}
						},
						"url": {
							"raw": "{{url}}/v1/gateways",
							"host": [
								"{{url}}"
							],
							"path": [
								"v1",
								"gateways"
							]
						}
					},
					"response": [
						{
							"name": "add",
							"originalRequest": {
								"method": "POST",
								"header": [],
								"body": {
									"mode": "raw",
									"raw": "{\n    \"serialNumber\" : \"1144sadaf11\",\n    \"name\" : \"hello world\",\n    \"ip\": \"12.12.1.2\"\n}",
									"options": {
										"raw": {
											"language": "json"
										}
									}
								},
								"url": {
									"raw": "{{url}}/v1/gateways",
									"host": [
										"{{url}}"
									],
									"path": [
										"v1",
										"gateways"
									]
								}
							},
							"status": "Created",
							"code": 201,
							"_postman_previewlanguage": null,
							"header": [
								{
									"key": "Location",
									"value": "http://localhost:8080/v1/gateways/:id",
									"description": "",
									"type": "text"
								}
							],
							"cookie": [],
							"body": ""
						},
						{
							"name": "Bad IP",
							"originalRequest": {
								"method": "POST",
								"header": [],
								"body": {
									"mode": "raw",
									"raw": "{\n    \"serialNumber\" : \"1144sadatf11\",\n    \"name\" : \"hello world\",\n    \"ip\": \"12.12.1.2076\"\n}",
									"options": {
										"raw": {
											"language": "json"
										}
									}
								},
								"url": {
									"raw": "{{url}}/v1/gateways",
									"host": [
										"{{url}}"
									],
									"path": [
										"v1",
										"gateways"
									]
								}
							},
							"status": "Bad Request",
							"code": 400,
							"_postman_previewlanguage": "json",
							"header": [],
							"cookie": [],
							"body": "{\n    \"X-error-message\": \"The input have invalid IPv4 id \",\n    \"X-error-code\": \"Validation\",\n    \"X-error-id\": \"ace17a64-0a7f-4f68-b96f-d1e212e8955d\",\n    \"X-error-timestamp\": \"2021-05-29T12:17:21.239\"\n}"
						}
					]
				},
				{
					"name": "add Device",
					"request": {
						"method": "POST",
						"header": [],
						"url": {
							"raw": "{{url}}/v1/gateways/:gatewayId/device/:deviceId",
							"host": [
								"{{url}}"
							],
							"path": [
								"v1",
								"gateways",
								":gatewayId",
								"device",
								":deviceId"
							],
							"variable": [
								{
									"key": "gatewayId",
									"value": "1"
								},
								{
									"key": "deviceId",
									"value": "1"
								}
							]
						}
					},
					"response": [
						{
							"name": "add Device",
							"originalRequest": {
								"method": "POST",
								"header": [],
								"url": {
									"raw": "{{url}}/v1/gateways/:gatewayId/device/:deviceId",
									"host": [
										"{{url}}"
									],
									"path": [
										"v1",
										"gateways",
										":gatewayId",
										"device",
										":deviceId"
									],
									"variable": [
										{
											"key": "gatewayId",
											"value": "1",
											"description": "gatway id"
										},
										{
											"key": "deviceId",
											"value": "1",
											"description": "device id"
										}
									]
								}
							},
							"status": "Created",
							"code": 201,
							"_postman_previewlanguage": null,
							"header": null,
							"cookie": [],
							"body": null
						},
						{
							"name": "device NotFound",
							"originalRequest": {
								"method": "POST",
								"header": [],
								"url": {
									"raw": "{{url}}/v1/gateways/:gatewayId/device/:deviceId",
									"host": [
										"{{url}}"
									],
									"path": [
										"v1",
										"gateways",
										":gatewayId",
										"device",
										":deviceId"
									],
									"variable": [
										{
											"key": "gatewayId",
											"value": "1"
										},
										{
											"key": "deviceId",
											"value": "-1515"
										}
									]
								}
							},
							"status": "Not Found",
							"code": 404,
							"_postman_previewlanguage": "json",
							"header": null,
							"cookie": [],
							"body": "{\n    \"X-error-message\": \"device is Not found .\",\n    \"X-error-code\": \"ent-nf01\",\n    \"X-error-id\": \"b5888c94-7cfd-4731-b073-f1fe7d954de6\",\n    \"X-error-timestamp\": \"2021-05-29T12:20:54.902\"\n}"
						},
						{
							"name": "gateway NotFound",
							"originalRequest": {
								"method": "POST",
								"header": [],
								"url": {
									"raw": "{{url}}/v1/gateways/:gatewayId/device/:deviceId",
									"host": [
										"{{url}}"
									],
									"path": [
										"v1",
										"gateways",
										":gatewayId",
										"device",
										":deviceId"
									],
									"variable": [
										{
											"key": "gatewayId",
											"value": "-1515"
										},
										{
											"key": "deviceId",
											"value": "1"
										}
									]
								}
							},
							"status": "Not Found",
							"code": 404,
							"_postman_previewlanguage": "json",
							"header": null,
							"cookie": [],
							"body": "{\n    \"X-error-message\": \"gateway is Not found .\",\n    \"X-error-code\": \"ent-nf01\",\n    \"X-error-id\": \"67b714c2-c713-42cc-9baf-1584d8aeac29\",\n    \"X-error-timestamp\": \"2021-05-29T12:23:49.319\"\n}"
						}
					]
				},
				{
					"name": "remove Device",
					"request": {
						"method": "DELETE",
						"header": [],
						"url": {
							"raw": "{{url}}/v1/gateways/:gatwayId/device/:deviceId",
							"host": [
								"{{url}}"
							],
							"path": [
								"v1",
								"gateways",
								":gatwayId",
								"device",
								":deviceId"
							],
							"variable": [
								{
									"key": "gatwayId",
									"value": "1"
								},
								{
									"key": "deviceId",
									"value": "1"
								}
							]
						}
					},
					"response": [
						{
							"name": "remove Device",
							"originalRequest": {
								"method": "DELETE",
								"header": [],
								"url": {
									"raw": "{{url}}/v1/gateways/:gatwayId/device/:deviceId",
									"host": [
										"{{url}}"
									],
									"path": [
										"v1",
										"gateways",
										":gatwayId",
										"device",
										":deviceId"
									],
									"variable": [
										{
											"key": "gatwayId",
											"value": "1"
										},
										{
											"key": "deviceId",
											"value": "1"
										}
									]
								}
							},
							"status": "No Content",
							"code": 204,
							"_postman_previewlanguage": null,
							"header": null,
							"cookie": [],
							"body": null
						},
						{
							"name": "device notfound",
							"originalRequest": {
								"method": "DELETE",
								"header": [],
								"url": {
									"raw": "{{url}}/v1/gateways/:gatwayId/device/:deviceId",
									"host": [
										"{{url}}"
									],
									"path": [
										"v1",
										"gateways",
										":gatwayId",
										"device",
										":deviceId"
									],
									"variable": [
										{
											"key": "gatwayId",
											"value": "1"
										},
										{
											"key": "deviceId",
											"value": "-111"
										}
									]
								}
							},
							"status": "Not Found",
							"code": 404,
							"_postman_previewlanguage": "json",
							"header": null,
							"cookie": [],
							"body": "{\n    \"X-error-message\": \"device is Not found .\",\n    \"X-error-code\": \"ent-nf01\",\n    \"X-error-id\": \"b5888c94-7cfd-4731-b073-f1fe7d954de6\",\n    \"X-error-timestamp\": \"2021-05-29T12:20:54.902\"\n}"
						},
						{
							"name": "gatway notfound",
							"originalRequest": {
								"method": "DELETE",
								"header": [],
								"url": {
									"raw": "{{url}}/v1/gateways/:gatwayId/device/:deviceId",
									"host": [
										"{{url}}"
									],
									"path": [
										"v1",
										"gateways",
										":gatwayId",
										"device",
										":deviceId"
									],
									"variable": [
										{
											"key": "gatwayId",
											"value": "-1111"
										},
										{
											"key": "deviceId",
											"value": "1"
										}
									]
								}
							},
							"status": "Not Found",
							"code": 404,
							"_postman_previewlanguage": "json",
							"header": null,
							"cookie": [],
							"body": "{\n    \"X-error-message\": \"gateway is Not found .\",\n    \"X-error-code\": \"ent-nf01\",\n    \"X-error-id\": \"67b714c2-c713-42cc-9baf-1584d8aeac29\",\n    \"X-error-timestamp\": \"2021-05-29T12:23:49.319\"\n}"
						}
					]
				},
				{
					"name": "update",
					"request": {
						"method": "PUT",
						"header": [],
						"body": {
							"mode": "raw",
							"raw": "{\n    \"serialNumber\" : \"1144sadaf11\",\n    \"name\" : \"hello hhh world\",\n    \"ip\": \"12.12.1.2\"\n}",
							"options": {
								"raw": {
									"language": "json"
								}
							}
						},
						"url": {
							"raw": "{{url}}/v1/gateways/:id",
							"host": [
								"{{url}}"
							],
							"path": [
								"v1",
								"gateways",
								":id"
							],
							"variable": [
								{
									"key": "id",
									"value": "1"
								}
							]
						}
					},
					"response": [
						{
							"name": "update",
							"originalRequest": {
								"method": "PUT",
								"header": [],
								"body": {
									"mode": "raw",
									"raw": "{\n    \"serialNumber\" : \"1144sadaf11\",\n    \"name\" : \"hello hhh world\",\n    \"ip\": \"12.12.1.2\"\n}",
									"options": {
										"raw": {
											"language": "json"
										}
									}
								},
								"url": {
									"raw": "{{url}}/v1/gateways/:id",
									"host": [
										"{{url}}"
									],
									"path": [
										"v1",
										"gateways",
										":id"
									],
									"variable": [
										{
											"key": "id",
											"value": "1"
										}
									]
								}
							},
							"status": "No Content",
							"code": 204,
							"_postman_previewlanguage": null,
							"header": null,
							"cookie": [],
							"body": null
						},
						{
							"name": "notfound",
							"originalRequest": {
								"method": "PUT",
								"header": [],
								"body": {
									"mode": "raw",
									"raw": "{\n    \"serialNumber\" : \"1144sadaf11\",\n    \"name\" : \"hello hhh world\",\n    \"ip\": \"12.12.1.2\"\n}",
									"options": {
										"raw": {
											"language": "json"
										}
									}
								},
								"url": {
									"raw": "{{url}}/v1/gateways/:id",
									"host": [
										"{{url}}"
									],
									"path": [
										"v1",
										"gateways",
										":id"
									],
									"variable": [
										{
											"key": "id",
											"value": "-100"
										}
									]
								}
							},
							"status": "Not Found",
							"code": 404,
							"_postman_previewlanguage": "json",
							"header": null,
							"cookie": [],
							"body": "{\n    \"X-error-message\": \"gateway is Not found .\",\n    \"X-error-code\": \"ent-nf01\",\n    \"X-error-id\": \"67b714c2-c713-42cc-9baf-1584d8aeac29\",\n    \"X-error-timestamp\": \"2021-05-29T12:23:49.319\"\n}"
						}
					]
				},
				{
					"name": "delete",
					"request": {
						"method": "DELETE",
						"header": [],
						"url": {
							"raw": "{{url}}/v1/gateways/:id",
							"host": [
								"{{url}}"
							],
							"path": [
								"v1",
								"gateways",
								":id"
							],
							"variable": [
								{
									"key": "id",
									"value": "1"
								}
							]
						}
					},
					"response": [
						{
							"name": "delete",
							"originalRequest": {
								"method": "DELETE",
								"header": [],
								"url": {
									"raw": "{{url}}/v1/gateways/:id",
									"host": [
										"{{url}}"
									],
									"path": [
										"v1",
										"gateways",
										":id"
									],
									"variable": [
										{
											"key": "id",
											"value": "1"
										}
									]
								}
							},
							"status": "No Content",
							"code": 204,
							"_postman_previewlanguage": null,
							"header": null,
							"cookie": [],
							"body": null
						},
						{
							"name": "notfound",
							"originalRequest": {
								"method": "DELETE",
								"header": [],
								"url": {
									"raw": "{{url}}/v1/gateways/:id",
									"host": [
										"{{url}}"
									],
									"path": [
										"v1",
										"gateways",
										":id"
									],
									"variable": [
										{
											"key": "id",
											"value": "-200"
										}
									]
								}
							},
							"status": "Not Found",
							"code": 404,
							"_postman_previewlanguage": "json",
							"header": null,
							"cookie": [],
							"body": "{\n    \"X-error-message\": \"gateway is Not found .\",\n    \"X-error-code\": \"ent-nf01\",\n    \"X-error-id\": \"67b714c2-c713-42cc-9baf-1584d8aeac29\",\n    \"X-error-timestamp\": \"2021-05-29T12:23:49.319\"\n}"
						}
					]
				}
			]
		},
		{
			"name": "device",
			"item": [
				{
					"name": "get all",
					"request": {
						"method": "GET",
						"header": [],
						"url": {
							"raw": "{{url}}/v1/devices",
							"host": [
								"{{url}}"
							],
							"path": [
								"v1",
								"devices"
							]
						}
					},
					"response": []
				},
				{
					"name": "get by id",
					"request": {
						"method": "GET",
						"header": [],
						"url": {
							"raw": "{{url}}/v1/devices/:id",
							"host": [
								"{{url}}"
							],
							"path": [
								"v1",
								"devices",
								":id"
							],
							"variable": [
								{
									"key": "id",
									"value": "1"
								}
							]
						}
					},
					"response": [
						{
							"name": "get by id",
							"originalRequest": {
								"method": "GET",
								"header": [],
								"url": {
									"raw": "{{url}}/v1/devices/:id",
									"host": [
										"{{url}}"
									],
									"path": [
										"v1",
										"devices",
										":id"
									],
									"variable": [
										{
											"key": "id",
											"value": "1"
										}
									]
								}
							},
							"status": "OK",
							"code": 200,
							"_postman_previewlanguage": "json",
							"header": null,
							"cookie": [],
							"body": "{\n    \"id\": 1,\n    \"uid\": 141212,\n    \"vendor\": \"ahmed\",\n    \"status\": \"DISCONNECTED\",\n    \"createdDate\": \"2021-05-29 12:36:51\",\n    \"lastModifiedDate\": \"2021-05-29 12:36:51\"\n}"
						},
						{
							"name": "device notfound",
							"originalRequest": {
								"method": "GET",
								"header": [],
								"url": {
									"raw": "{{url}}/v1/devices/:id",
									"host": [
										"{{url}}"
									],
									"path": [
										"v1",
										"devices",
										":id"
									],
									"variable": [
										{
											"key": "id",
											"value": "-11"
										}
									]
								}
							},
							"status": "Not Found",
							"code": 404,
							"_postman_previewlanguage": "json",
							"header": null,
							"cookie": [],
							"body": "{\n    \"X-error-message\": \"device is Not found .\",\n    \"X-error-code\": \"ent-nf01\",\n    \"X-error-id\": \"0d5ed1e4-3f7f-4570-938f-10f403fb1047\",\n    \"X-error-timestamp\": \"2021-05-29T12:35:38.678\"\n}"
						}
					]
				},
				{
					"name": "add",
					"request": {
						"method": "POST",
						"header": [],
						"body": {
							"mode": "raw",
							"raw": "{\n    \"serialNumber\" : \"1144sadaf11\",\n    \"name\" : \"hello world\",\n    \"ip\": \"12.12.1.2\"\n}",
							"options": {
								"raw": {
									"language": "json"
								}
							}
						},
						"url": {
							"raw": "{{url}}/v1/devices",
							"host": [
								"{{url}}"
							],
							"path": [
								"v1",
								"devices"
							]
						}
					},
					"response": [
						{
							"name": "add",
							"originalRequest": {
								"method": "POST",
								"header": [],
								"body": {
									"mode": "raw",
									"raw": "{\n    \"serialNumber\" : \"1144sadaf11\",\n    \"name\" : \"hello world\",\n    \"ip\": \"12.12.1.2\"\n}",
									"options": {
										"raw": {
											"language": "json"
										}
									}
								},
								"url": {
									"raw": "{{url}}/v1/devices",
									"host": [
										"{{url}}"
									],
									"path": [
										"v1",
										"devices"
									]
								}
							},
							"status": "Created",
							"code": 201,
							"_postman_previewlanguage": null,
							"header": [
								{
									"key": "Location",
									"value": "http://localhost:8080/v1/devices/1",
									"description": "",
									"type": "text"
								}
							],
							"cookie": [],
							"body": null
						}
					]
				},
				{
					"name": "update",
					"request": {
						"method": "PUT",
						"header": [],
						"body": {
							"mode": "raw",
							"raw": "{\n    \"uid\" : \"1412411\",\n    \"vendor\" : \"ahmed\"\n}",
							"options": {
								"raw": {
									"language": "json"
								}
							}
						},
						"url": {
							"raw": "{{url}}/v1/devices/:id",
							"host": [
								"{{url}}"
							],
							"path": [
								"v1",
								"devices",
								":id"
							],
							"variable": [
								{
									"key": "id",
									"value": "1"
								}
							]
						}
					},
					"response": [
						{
							"name": "update",
							"originalRequest": {
								"method": "PUT",
								"header": [],
								"body": {
									"mode": "raw",
									"raw": "{\n    \"uid\" : \"1412411\",\n    \"vendor\" : \"ahmed\"\n}",
									"options": {
										"raw": {
											"language": "json"
										}
									}
								},
								"url": {
									"raw": "{{url}}/v1/devices/:id",
									"host": [
										"{{url}}"
									],
									"path": [
										"v1",
										"devices",
										":id"
									],
									"variable": [
										{
											"key": "id",
											"value": "1"
										}
									]
								}
							},
							"status": "No Content",
							"code": 204,
							"_postman_previewlanguage": null,
							"header": null,
							"cookie": [],
							"body": null
						},
						{
							"name": "notfound",
							"originalRequest": {
								"method": "PUT",
								"header": [],
								"body": {
									"mode": "raw",
									"raw": "{\n    \"uid\" : \"1412411\",\n    \"vendor\" : \"ahmed\"\n}",
									"options": {
										"raw": {
											"language": "json"
										}
									}
								},
								"url": {
									"raw": "{{url}}/v1/devices/:id",
									"host": [
										"{{url}}"
									],
									"path": [
										"v1",
										"devices",
										":id"
									],
									"variable": [
										{
											"key": "id",
											"value": "-100"
										}
									]
								}
							},
							"status": "Not Found",
							"code": 404,
							"_postman_previewlanguage": "json",
							"header": null,
							"cookie": [],
							"body": "{\n    \"X-error-message\": \"device is Not found .\",\n    \"X-error-code\": \"ent-nf01\",\n    \"X-error-id\": \"b5888c94-7cfd-4731-b073-f1fe7d954de6\",\n    \"X-error-timestamp\": \"2021-05-29T12:20:54.902\"\n}"
						}
					]
				},
				{
					"name": "delete",
					"request": {
						"method": "DELETE",
						"header": [],
						"url": {
							"raw": "{{url}}/v1/devices/:id",
							"host": [
								"{{url}}"
							],
							"path": [
								"v1",
								"devices",
								":id"
							],
							"variable": [
								{
									"key": "id",
									"value": "1"
								}
							]
						}
					},
					"response": [
						{
							"name": "delete",
							"originalRequest": {
								"method": "DELETE",
								"header": [],
								"url": {
									"raw": "{{url}}/v1/devices/:id",
									"host": [
										"{{url}}"
									],
									"path": [
										"v1",
										"devices",
										":id"
									],
									"variable": [
										{
											"key": "id",
											"value": "1"
										}
									]
								}
							},
							"status": "No Content",
							"code": 204,
							"_postman_previewlanguage": null,
							"header": null,
							"cookie": [],
							"body": null
						},
						{
							"name": "notfound",
							"originalRequest": {
								"method": "DELETE",
								"header": [],
								"url": {
									"raw": "{{url}}/v1/devices/:id",
									"host": [
										"{{url}}"
									],
									"path": [
										"v1",
										"devices",
										":id"
									],
									"variable": [
										{
											"key": "id",
											"value": "-100"
										}
									]
								}
							},
							"status": "Not Found",
							"code": 404,
							"_postman_previewlanguage": "json",
							"header": null,
							"cookie": [],
							"body": "{\n    \"X-error-message\": \"device is Not found .\",\n    \"X-error-code\": \"ent-nf01\",\n    \"X-error-id\": \"b5888c94-7cfd-4731-b073-f1fe7d954de6\",\n    \"X-error-timestamp\": \"2021-05-29T12:20:54.902\"\n}"
						}
					]
				}
			]
		}
	]
}